{
  "type": "FeatureCollection",
  "features": [
    {
      "type": "Feature",
      "id": "bzku81k8iab1w1aq",
      "geometry": {
        "type": "Point",
        "coordinates": [
          29.51328,
          64.12662
        ]
      },
      "properties": {
        "icon": "visitkamk_icon_info.png",
        "title": "Juminkeko"
      }
    },
    {
      "type": "Feature",
      "id": "1cd7uh62m20hs78a",
      "geometry": {
        "type": "Point",
        "coordinates": [
          27.73043,
          64.22836
        ]
      },
      "properties": {
        "icon": "visitkamk_icon_info.png",
        "title": "Elias Lönnrot statue"
      }
    },
    {
      "type": "Feature",
      "id": "ll7cc5jff25p99u8",
      "geometry": {
        "type": "Point",
        "coordinates": [
          24.95693,
          60.16982
        ]
      },
      "properties": {
        "icon": "visitkamk_icon_info.png",
        "title": "Kalevalaseura - Kalevala Society"
      }
    },
    {
      "type": "Feature",
      "id": "u8x6rn7gu70hd191",
      "geometry": {
        "type": "Point",
        "coordinates": [
          24.95623,
          60.17015
        ]
      },
      "properties": {
        "icon": "visitkamk_icon_info.png",
        "title": "Finnish Literature Society"
      }
    },
    {
      "type": "Feature",
      "id": "96fe76wz06ixodva",
      "geometry": {
        "type": "Point",
        "coordinates": [
          24.93885,
          60.16678
        ]
      },
      "properties": {
        "icon": "visitkamk_icon_info.png",
        "title": "Lönnrot statue"
      }
    },
    {
      "type": "Feature",
      "id": "r8r4g75rjo5m0h2m",
      "geometry": {
        "type": "Point",
        "coordinates": [
          23.75018,
          60.37029
        ]
      },
      "properties": {
        "icon": "visitkamk_icon_info.png",
        "title": "Lönnrot's last home"
      }
    },
    {
      "type": "Feature",
      "id": "4rtnpzfdnj8b9j7o",
      "geometry": {
        "type": "Point",
        "coordinates": [
          23.82126,
          60.31985
        ]
      },
      "properties": {
        "icon": "visitkamk_icon_info.png",
        "title": "Sammatti"
      }
    },
    {
      "type": "Feature",
      "id": "42dz54tzrhb1o38x",
      "geometry": {
        "type": "Point",
        "coordinates": [
          27.76773,
          64.22404
        ]
      },
      "properties": {
        "icon": "visitkamk_icon_info.png",
        "title": "Lönnrot’s cottage and herb garden"
      }
    },
    {
      "type": "Feature",
      "id": "h66jafxioc22sbzv",
      "geometry": {
        "type": "Point",
        "coordinates": [
          27.72766,
          64.22704
        ]
      },
      "properties": {
        "icon": "visitkamk_icon_info.png",
        "title": "Elias Lönnrot association"
      }
    },
    {
      "type": "Feature",
      "id": "xcrymj887b0gelhb",
      "geometry": {
        "type": "Point",
        "coordinates": [
          29.58778,
          64.11886
        ]
      },
      "properties": {
        "icon": "visitkamk_icon_info.png",
        "title": "Hotel Kalevala"
      }
    },
    {
      "type": "Feature",
      "id": "j5l8f44343nzsnqk",
      "geometry": {
        "type": "Point",
        "coordinates": [
          29.51884,
          64.12835
        ]
      },
      "properties": {
        "icon": "visitkamk_icon_info.png",
        "title": "Hotelli Kainuu Oy"
      }
    },
    {
      "type": "Feature",
      "id": "g3wr1s3pd5davzoq",
      "geometry": {
        "type": "Point",
        "coordinates": [
          29.51933,
          64.12781
        ]
      },
      "properties": {
        "icon": "visitkamk_icon_info.png",
        "title": "Kaesan Home Bakery Ltd"
      }
    },
    {
      "type": "Feature",
      "id": "9ja42dz32fqnlbe3",
      "geometry": {
        "type": "Point",
        "coordinates": [
          29.51958,
          64.1291
        ]
      },
      "properties": {
        "icon": "visitkamk_icon_info.png",
        "title": "Lounasravintola/ Restaurant Neljä Kaesaa"
      }
    },
    {
      "type": "Feature",
      "id": "56e6i7r8r1bpmtja",
      "geometry": {
        "type": "Point",
        "coordinates": [
          29.52635,
          64.12677
        ]
      },
      "properties": {
        "icon": "visitkamk_icon_info.png",
        "title": "Bus station / Linja-autoasema"
      }
    },
    {
      "type": "Feature",
      "id": "1c95iqgfpjhyefpn",
      "geometry": {
        "type": "Point",
        "coordinates": [
          29.5253,
          64.12734
        ]
      },
      "properties": {
        "icon": "visitkamk_icon_info.png",
        "title": "Taxi"
      }
    },
    {
      "type": "Feature",
      "id": "nc044vusrqg0hv5i",
      "geometry": {
        "type": "Point",
        "coordinates": [
          27.67413,
          64.28103
        ]
      },
      "properties": {
        "icon": "visitkamk_icon_info.png",
        "title": "Kajaani Airport"
      }
    },
    {
      "type": "Feature",
      "id": "x1p8t38x5xqf1v0j",
      "geometry": {
        "type": "Point",
        "coordinates": [
          27.73854,
          64.21995
        ]
      },
      "properties": {
        "icon": "visitkamk_icon_info.png",
        "title": "Kajaani matkakeskus / travel center"
      }
    },
    {
      "type": "Feature",
      "id": "39fsj60o33rrzblj",
      "geometry": {
        "type": "Point",
        "coordinates": [
          29.50369,
          64.12658
        ]
      },
      "properties": {
        "icon": "visitkamk_icon_info.png",
        "title": "Kuhmo City Library"
      }
    },
    {
      "type": "Feature",
      "id": "vrsot59d8gvv696x",
      "geometry": {
        "type": "Point",
        "coordinates": [
          29.52137,
          64.13092
        ]
      },
      "properties": {
        "icon": "visitkamk_icon_info.png",
        "title": "Ruukin ranta Beach"
      }
    },
    {
      "type": "Feature",
      "id": "74ibb35l2ob5u3mb",
      "geometry": {
        "type": "Point",
        "coordinates": [
          29.58951,
          64.11705
        ]
      },
      "properties": {
        "icon": "visitkamk_icon_info.png",
        "title": "Winter War Museum"
      }
    },
    {
      "type": "Feature",
      "id": "l809u20sgdicjoaz",
      "geometry": {
        "type": "Point",
        "coordinates": [
          29.58108,
          64.12137
        ]
      },
      "properties": {
        "icon": "visitkamk_icon_info.png",
        "title": "Nature Center Petola"
      }
    },
    {
      "type": "Feature",
      "id": "6mjj534hjnzbsalk",
      "geometry": {
        "type": "Point",
        "coordinates": [
          29.52002,
          64.1299
        ]
      },
      "properties": {
        "icon": "visitkamk_icon_info.png",
        "title": "Kuhmo Arts Centre"
      }
    }                                                                                                                                                                                      
  ]
}